%YAML 1.1
%TAG !u! tag:unity3d.com,2011:
--- !u!1001 &100100000
Prefab:
  m_ObjectHideFlags: 1
  serializedVersion: 2
  m_Modification:
    m_TransformParent: {fileID: 0}
    m_Modifications: []
    m_RemovedComponents: []
  m_ParentPrefab: {fileID: 0}
  m_RootGameObject: {fileID: 1916287101702288}
  m_IsPrefabParent: 1
--- !u!1 &1916287101702288
GameObject:
  m_ObjectHideFlags: 0
  m_PrefabParentObject: {fileID: 0}
  m_PrefabInternal: {fileID: 100100000}
  serializedVersion: 5
  m_Component:
  - component: {fileID: 4025200869537364}
  - component: {fileID: 114510137343641776}
  m_Layer: 0
  m_Name: AudioManager
  m_TagString: Untagged
  m_Icon: {fileID: 0}
  m_NavMeshLayer: 0
  m_StaticEditorFlags: 0
  m_IsActive: 1
--- !u!4 &4025200869537364
Transform:
  m_ObjectHideFlags: 1
  m_PrefabParentObject: {fileID: 0}
  m_PrefabInternal: {fileID: 100100000}
  m_GameObject: {fileID: 1916287101702288}
  m_LocalRotation: {x: 0, y: 0, z: 0, w: 1}
  m_LocalPosition: {x: 0, y: 0, z: 0}
  m_LocalScale: {x: 1, y: 1, z: 1}
  m_Children: []
  m_Father: {fileID: 0}
  m_RootOrder: 0
  m_LocalEulerAnglesHint: {x: 0, y: 0, z: 0}
--- !u!114 &114510137343641776
MonoBehaviour:
  m_ObjectHideFlags: 1
  m_PrefabParentObject: {fileID: 0}
  m_PrefabInternal: {fileID: 100100000}
  m_GameObject: {fileID: 1916287101702288}
  m_Enabled: 1
  m_EditorHideFlags: 0
  m_Script: {fileID: 11500000, guid: 3a9a08ae80e1c5c4ab4ac0db2ed88dda, type: 3}
  m_Name: 
  m_EditorClassIdentifier: 
  sounds:
  - name: RoboMove
    clip: {fileID: 8300000, guid: 76976d72ae39748878e5a2f279d360ef, type: 3}
    volume: 1
    pitch: 1
    source: {fileID: 0}
  - name: RoboTurn
    clip: {fileID: 8300000, guid: 2aa8b0c5c7e3a44c3a281481c92baa8e, type: 3}
    volume: 1
    pitch: 1
    source: {fileID: 0}
  - name: RoboDrain
    clip: {fileID: 8300000, guid: 859c5cf46eab74c67845871efd7938f9, type: 3}
    volume: 1
    pitch: 1
    source: {fileID: 0}
  - name: RoboCharge
    clip: {fileID: 8300000, guid: a5e779c7c129d44768a86a5e8e6eea90, type: 3}
    volume: 1
    pitch: 1
    source: {fileID: 0}
