%YAML 1.1
%TAG !u! tag:unity3d.com,2011:
--- !u!1001 &100100000
Prefab:
  m_ObjectHideFlags: 1
  serializedVersion: 2
  m_Modification:
    m_TransformParent: {fileID: 0}
    m_Modifications: []
    m_RemovedComponents: []
  m_ParentPrefab: {fileID: 0}
  m_RootGameObject: {fileID: 1980964181963764}
  m_IsPrefabParent: 1
--- !u!1 &1980964181963764
GameObject:
  m_ObjectHideFlags: 0
  m_PrefabParentObject: {fileID: 0}
  m_PrefabInternal: {fileID: 100100000}
  serializedVersion: 5
  m_Component:
  - component: {fileID: 4578188902088046}
  - component: {fileID: 114290629962270752}
  m_Layer: 0
  m_Name: AudioManager 1
  m_TagString: Untagged
  m_Icon: {fileID: 0}
  m_NavMeshLayer: 0
  m_StaticEditorFlags: 0
  m_IsActive: 1
--- !u!4 &4578188902088046
Transform:
  m_ObjectHideFlags: 1
  m_PrefabParentObject: {fileID: 0}
  m_PrefabInternal: {fileID: 100100000}
  m_GameObject: {fileID: 1980964181963764}
  m_LocalRotation: {x: 0, y: 0, z: 0, w: 1}
  m_LocalPosition: {x: 0, y: 0, z: 0}
  m_LocalScale: {x: 1, y: 1, z: 1}
  m_Children: []
  m_Father: {fileID: 0}
  m_RootOrder: 0
  m_LocalEulerAnglesHint: {x: 0, y: 0, z: 0}
--- !u!114 &114290629962270752
MonoBehaviour:
  m_ObjectHideFlags: 1
  m_PrefabParentObject: {fileID: 0}
  m_PrefabInternal: {fileID: 100100000}
  m_GameObject: {fileID: 1980964181963764}
  m_Enabled: 1
  m_EditorHideFlags: 0
  m_Script: {fileID: 11500000, guid: 3a9a08ae80e1c5c4ab4ac0db2ed88dda, type: 3}
  m_Name: 
  m_EditorClassIdentifier: 
  sounds:
  - name: RoboMove
    clip: {fileID: 8300000, guid: 1501e3d7d15a040129d93930913a231e, type: 3}
    volume: 1
    pitch: 1
    source: {fileID: 0}
  - name: RoboTurn
    clip: {fileID: 8300000, guid: cbf15fb5f1daf402ba4a44ca20848306, type: 3}
    volume: 1
    pitch: 1
    source: {fileID: 0}
  - name: RoboDrain
    clip: {fileID: 8300000, guid: a5aad0ea9cc9d4436a15da0cca3b3615, type: 3}
    volume: 0.7
    pitch: 1
    source: {fileID: 0}
  - name: RoboCharge
    clip: {fileID: 8300000, guid: e59fc7374dc374d6db7f805e43cc5c06, type: 3}
    volume: 0.7
    pitch: 1
    source: {fileID: 0}
  - name: Rubbish1
    clip: {fileID: 8300000, guid: e5065e5cfc6f94f2f9ad1d2fb30a9f96, type: 3}
    volume: 1
    pitch: 1
    source: {fileID: 0}
  - name: Rubbish2
    clip: {fileID: 8300000, guid: 26c46cdf9024844e8962195497fb6c5e, type: 3}
    volume: 1
    pitch: 1
    source: {fileID: 0}
  - name: Rubbish3
    clip: {fileID: 8300000, guid: 5179fcbfa0c734dd2af6e95aadebb513, type: 3}
    volume: 1
    pitch: 1
    source: {fileID: 0}
  - name: Win
    clip: {fileID: 8300000, guid: 7c371c022dcec47d4acf568f7526aeac, type: 3}
    volume: 1
    pitch: 1
    source: {fileID: 0}
  - name: Lose1
    clip: {fileID: 8300000, guid: 405fd55832bac4e4e9c48d2a0e85e1a2, type: 3}
    volume: 1
    pitch: 1
    source: {fileID: 0}
  - name: Lose2
    clip: {fileID: 8300000, guid: bfcedf6b5928241789006874eead796e, type: 3}
    volume: 1
    pitch: 1
    source: {fileID: 0}
  - name: IntroMusic
    clip: {fileID: 8300000, guid: f9d247b49d322284b94518055e6648af, type: 3}
    volume: 0.7
    pitch: 1
    source: {fileID: 0}
